{
	"id": "50e46740-9950-4bb4-8089-61e6202c2065",
	"name": "cars-api2-prod-env",
	"values": [
		{
			"key": "baseUrl",
			"value": "http://cars-api3-prod-env.eba-wkmdpcjt.eu-west-2.elasticbeanstalk.com/",
			"enabled": true
		}
	],
	"_postman_variable_scope": "environment",
	"_postman_exported_at": "2023-06-08T19:52:43.434Z",
	"_postman_exported_using": "Postman/10.14.9"
}